<?xml version="1.0" encoding="UTF-8" standalone="no"?>
<!-- Created with Inkscape (http://www.inkscape.org/) -->

<svg
   xmlns:dc="http://purl.org/dc/elements/1.1/"
   xmlns:cc="http://creativecommons.org/ns#"
   xmlns:rdf="http://www.w3.org/1999/02/22-rdf-syntax-ns#"
   xmlns:svg="http://www.w3.org/2000/svg"
   xmlns="http://www.w3.org/2000/svg"
   xmlns:sodipodi="http://sodipodi.sourceforge.net/DTD/sodipodi-0.dtd"
   xmlns:inkscape="http://www.inkscape.org/namespaces/inkscape"
   width="130"
   height="30"
   viewBox="0 0 130 30.000001"
   id="svg2"
   version="1.1"
   inkscape:version="0.91 r13725"
   sodipodi:docname="autotradingbot.svg">
  <defs
     id="defs4">
    <clipPath
       id="clipPath4169"
       clipPathUnits="userSpaceOnUse">
      <path
         style="clip-rule:evenodd"
         inkscape:connector-curvature="0"
         id="path4171"
         d="m 0,0 375,0 0,375.75 -375,0 L 0,0 Z" />
    </clipPath>
    <clipPath
       id="clipPath4181"
       clipPathUnits="userSpaceOnUse">
      <path
         style="clip-rule:evenodd"
         inkscape:connector-curvature="0"
         id="path4183"
         d="M 0,0 375,0 375,375 0,375 0,0 Z" />
    </clipPath>
    <clipPath
       id="clipPath4193"
       clipPathUnits="userSpaceOnUse">
      <path
         style="clip-rule:evenodd"
         inkscape:connector-curvature="0"
         id="path4195"
         d="M 0,0 375,0 375,375 0,375 0,0 Z" />
    </clipPath>
    <clipPath
       id="clipPath4259"
       clipPathUnits="userSpaceOnUse">
      <path
         style="clip-rule:evenodd"
         inkscape:connector-curvature="0"
         id="path4261"
         d="m 231.75,160.5 41.25,0 0,15 -41.25,0 0,-15 z" />
    </clipPath>
    <clipPath
       id="clipPath4525"
       clipPathUnits="userSpaceOnUse">
      <path
         style="clip-rule:evenodd"
         inkscape:connector-curvature="0"
         id="path4527"
         d="m 0,0 375,0 0,375.75 -375,0 L 0,0 Z" />
    </clipPath>
    <clipPath
       id="clipPath4537"
       clipPathUnits="userSpaceOnUse">
      <path
         style="clip-rule:evenodd"
         inkscape:connector-curvature="0"
         id="path4539"
         d="M 0,0 375,0 375,375 0,375 0,0 Z" />
    </clipPath>
    <clipPath
       id="clipPath4549"
       clipPathUnits="userSpaceOnUse">
      <path
         style="clip-rule:evenodd"
         inkscape:connector-curvature="0"
         id="path4551"
         d="M 0,0 375,0 375,375 0,375 0,0 Z" />
    </clipPath>
    <clipPath
       id="clipPath4603"
       clipPathUnits="userSpaceOnUse">
      <path
         style="clip-rule:evenodd"
         inkscape:connector-curvature="0"
         id="path4605"
         d="m 308.25,127.5 43.5,0 0,16.5 -43.5,0 0,-16.5 z" />
    </clipPath>
    <clipPath
       id="clipPath4615"
       clipPathUnits="userSpaceOnUse">
      <path
         style="clip-rule:evenodd"
         inkscape:connector-curvature="0"
         id="path4617"
         d="M 0,0 375,0 375,375 0,375 0,0 Z" />
    </clipPath>
    <clipPath
       id="clipPath4549-3"
       clipPathUnits="userSpaceOnUse">
      <path
         style="clip-rule:evenodd"
         inkscape:connector-curvature="0"
         id="path4551-6"
         d="M 0,0 375,0 375,375 0,375 0,0 Z" />
    </clipPath>
    <clipPath
       id="clipPath4603-7"
       clipPathUnits="userSpaceOnUse">
      <path
         style="clip-rule:evenodd"
         inkscape:connector-curvature="0"
         id="path4605-5"
         d="m 308.25,127.5 43.5,0 0,16.5 -43.5,0 0,-16.5 z" />
    </clipPath>
    <clipPath
       id="clipPath4615-3"
       clipPathUnits="userSpaceOnUse">
      <path
         style="clip-rule:evenodd"
         inkscape:connector-curvature="0"
         id="path4617-5"
         d="M 0,0 375,0 375,375 0,375 0,0 Z" />
    </clipPath>
  </defs>
  <sodipodi:namedview
     id="base"
     pagecolor="#ffffff"
     bordercolor="#666666"
     borderopacity="1.0"
     inkscape:pageopacity="0.0"
     inkscape:pageshadow="2"
     inkscape:zoom="5.6"
     inkscape:cx="112.00845"
     inkscape:cy="-14.605468"
     inkscape:document-units="px"
     inkscape:current-layer="layer1"
     showgrid="false"
     fit-margin-top="0"
     fit-margin-left="0"
     fit-margin-right="0"
     fit-margin-bottom="0"
     inkscape:window-width="3200"
     inkscape:window-height="1693"
     inkscape:window-x="0"
     inkscape:window-y="0"
     inkscape:window-maximized="1"
     units="px" />
  <metadata
     id="metadata7">
    <rdf:RDF>
      <cc:Work
         rdf:about="">
        <dc:format>image/svg+xml</dc:format>
        <dc:type
           rdf:resource="http://purl.org/dc/dcmitype/StillImage" />
        <dc:title></dc:title>
      </cc:Work>
    </rdf:RDF>
  </metadata>
  <g
     inkscape:label="Capa 1"
     inkscape:groupmode="layer"
     id="layer1"
     transform="translate(-159.12839,-386.63787)">
    <g
       id="g4165"
       transform="matrix(1.25,0,0,1.25,138.61342,138.57321)" />
    <g
       id="g4177"
       transform="matrix(1.25,0,0,1.25,138.61342,138.57321)" />
    <g
       transform="matrix(1.25,0,0,1.25,60.326592,4.22291)"
       id="g4457">
      <g
         id="g4338"
         transform="matrix(0.8059227,0,0,0.8059227,23.056222,161.84461)">
        <text
           id="text4199"
           style="font-variant:normal;font-weight:bold;font-size:48.29999924px;font-family:LeagueSpartan;-inkscape-font-specification:LeagueSpartan-Bold;writing-mode:lr-tb;fill:#f6b21b;fill-opacity:1;fill-rule:nonzero;stroke:none"
           transform="translate(16.640625,46)">
          <tspan
             id="tspan4201"
             y="0"
             x="0">A</tspan>
        </text>
        <text
           id="text4203"
           style="font-variant:normal;font-weight:bold;font-size:48.29999924px;font-family:LeagueSpartan;-inkscape-font-specification:LeagueSpartan-Bold;writing-mode:lr-tb;fill:#f6b21b;fill-opacity:1;fill-rule:nonzero;stroke:none"
           transform="translate(54.5,46)">
          <tspan
             id="tspan4205"
             y="0"
             x="0">u</tspan>
        </text>
        <text
           id="text4207"
           style="font-variant:normal;font-weight:bold;font-size:48.29999924px;font-family:LeagueSpartan;-inkscape-font-specification:LeagueSpartan-Bold;writing-mode:lr-tb;fill:#f6b21b;fill-opacity:1;fill-rule:nonzero;stroke:none"
           transform="translate(86.171875,46)">
          <tspan
             id="tspan4209"
             y="0"
             x="0">t</tspan>
        </text>
        <text
           id="text4211"
           style="font-variant:normal;font-weight:bold;font-size:48.29999924px;font-family:LeagueSpartan;-inkscape-font-specification:LeagueSpartan-Bold;writing-mode:lr-tb;fill:#f6b21b;fill-opacity:1;fill-rule:nonzero;stroke:none"
           transform="translate(105.23438,46)">
          <tspan
             id="tspan4213"
             y="0"
             x="0">o</tspan>
        </text>
      </g>
      <text
         style="font-variant:normal;font-weight:bold;font-size:38.92606735px;font-family:LeagueSpartan;-inkscape-font-specification:LeagueSpartan-Bold;writing-mode:lr-tb;fill:#ffffff;fill-opacity:1;fill-rule:nonzero;stroke:none"
         id="text4215"
         x="133.59357"
         y="198.91705">
        <tspan
           x="133.59357"
           y="198.91705"
           id="tspan4217"
           style="fill:#ffffff">T</tspan>
      </text>
      <text
         style="font-variant:normal;font-weight:bold;font-size:38.92606735px;font-family:LeagueSpartan;-inkscape-font-specification:LeagueSpartan-Bold;writing-mode:lr-tb;fill:#ffffff;fill-opacity:1;fill-rule:nonzero;stroke:none"
         id="text4219"
         x="156.78902"
         y="198.91705">
        <tspan
           x="156.78902"
           y="198.91705"
           id="tspan4221"
           style="fill:#ffffff">r</tspan>
      </text>
      <text
         style="font-variant:normal;font-weight:bold;font-size:38.92606735px;font-family:LeagueSpartan;-inkscape-font-specification:LeagueSpartan-Bold;writing-mode:lr-tb;fill:#ffffff;fill-opacity:1;fill-rule:nonzero;stroke:none"
         id="text4223"
         x="176.16895"
         y="198.91705">
        <tspan
           x="176.16895"
           y="198.91705"
           id="tspan4225"
           style="fill:#ffffff">a</tspan>
      </text>
      <text
         style="font-variant:normal;font-weight:bold;font-size:38.92606735px;font-family:LeagueSpartan;-inkscape-font-specification:LeagueSpartan-Bold;writing-mode:lr-tb;fill:#ffffff;fill-opacity:1;fill-rule:nonzero;stroke:none"
         id="text4227"
         x="202.7518"
         y="198.91705">
        <tspan
           x="202.7518"
           y="198.91705"
           id="tspan4229"
           style="fill:#ffffff">d</tspan>
      </text>
      <text
         style="font-variant:normal;font-weight:bold;font-size:38.92606735px;font-family:LeagueSpartan;-inkscape-font-specification:LeagueSpartan-Bold;writing-mode:lr-tb;fill:#ffffff;fill-opacity:1;fill-rule:nonzero;stroke:none"
         id="text4231"
         x="229.33466"
         y="198.91705">
        <tspan
           x="229.33466"
           y="198.91705"
           id="tspan4233"
           style="fill:#ffffff">i</tspan>
      </text>
      <text
         style="font-variant:normal;font-weight:bold;font-size:38.92606735px;font-family:LeagueSpartan;-inkscape-font-specification:LeagueSpartan-Bold;writing-mode:lr-tb;fill:#ffffff;fill-opacity:1;fill-rule:nonzero;stroke:none"
         id="text4235"
         x="241.0835"
         y="198.91705">
        <tspan
           x="241.0835"
           y="198.91705"
           id="tspan4237"
           style="fill:#ffffff">n</tspan>
      </text>
      <text
         style="font-variant:normal;font-weight:bold;font-size:38.92606735px;font-family:LeagueSpartan;-inkscape-font-specification:LeagueSpartan-Bold;writing-mode:lr-tb;fill:#ffffff;fill-opacity:1;fill-rule:nonzero;stroke:none"
         id="text4239"
         x="266.81006"
         y="198.91705">
        <tspan
           x="266.81006"
           y="198.91705"
           id="tspan4241"
           style="fill:#ffffff">g</tspan>
      </text>
      <text
         style="font-variant:normal;font-weight:bold;font-size:38.92606735px;font-family:LeagueSpartan;-inkscape-font-specification:LeagueSpartan-Bold;writing-mode:lr-tb;fill:#ffffff;fill-opacity:1;fill-rule:nonzero;stroke:none"
         id="text4243"
         x="293.39291"
         y="198.91705">
        <tspan
           x="293.39291"
           y="198.91705"
           id="tspan4245"
           style="fill:#ffffff">B</tspan>
      </text>
      <text
         style="font-variant:normal;font-weight:bold;font-size:38.92606735px;font-family:LeagueSpartan;-inkscape-font-specification:LeagueSpartan-Bold;writing-mode:lr-tb;fill:#ffffff;fill-opacity:1;fill-rule:nonzero;stroke:none"
         id="text4247"
         x="319.30838"
         y="198.91705">
        <tspan
           x="319.30838"
           y="198.91705"
           id="tspan4249"
           style="fill:#ffffff">o</tspan>
      </text>
      <text
         style="font-variant:normal;font-weight:bold;font-size:38.92606735px;font-family:LeagueSpartan;-inkscape-font-specification:LeagueSpartan-Bold;writing-mode:lr-tb;fill:#ffffff;fill-opacity:1;fill-rule:nonzero;stroke:none"
         id="text4251"
         x="345.03494"
         y="198.91705">
        <tspan
           x="345.03494"
           y="198.91705"
           id="tspan4253"
           style="fill:#ffffff">t</tspan>
      </text>
      <g
         id="g4255"
         transform="matrix(1.0745636,0,0,1.0745636,-2.7333046,-15.458387)">
        <g
           clip-path="url(#clipPath4259)"
           id="g4257">
          <g
             transform="matrix(-0.10550901,0,0,-0.10309278,272.99673,175.5)"
             id="g4263">
            <path
               inkscape:connector-curvature="0"
               id="path4265"
               style="fill:#f6b21b;fill-opacity:1;fill-rule:nonzero;stroke:none"
               d="M 390.89999,145.5 145.5,145.5 C 65.099998,145.5 0,80.400002 0,0 l 390.89999,0 0,145.5 z" />
          </g>
        </g>
      </g>
    </g>
    <g
       id="g4519"
       inkscape:label="AutoTrading (1)"
       transform="matrix(0.39108867,0,0,0.39108867,150.64896,337.94728)">
      <g
         id="g4533" />
      <g
         id="g4545">
        <g
           id="g4547"
           clip-path="url(#clipPath4549)">
          <g
             id="g4553"
             transform="matrix(0.75,0,0,0.75,0,127.5)">
            <g
               transform="translate(28.578125,65)"
               style="font-variant:normal;font-weight:bold;font-size:67.72000122px;font-family:LeagueSpartan;-inkscape-font-specification:LeagueSpartan-Bold;writing-mode:lr-tb;fill:#f6b21b;fill-opacity:1;fill-rule:nonzero;stroke:none"
               id="text4555">
              <path
                 d="m 36.174649,-8.9940627 -19.905977,0 L 13.127364,0 0.33066407,0 18.616387,-49.368145 l 15.177481,0 L 52.079591,0 39.282891,0 36.174649,-8.9940627 Z m -16.731602,-9.1593943 13.524161,0 -6.745547,-19.641446 -6.778614,19.641446 z"
                 id="path4998"
                 inkscape:connector-curvature="0" />
            </g>
            <g
               transform="translate(81.65625,65)"
               style="font-variant:normal;font-weight:bold;font-size:67.72000122px;font-family:LeagueSpartan;-inkscape-font-specification:LeagueSpartan-Bold;writing-mode:lr-tb;fill:#f6b21b;fill-opacity:1;fill-rule:nonzero;stroke:none"
               id="text4559">
              <path
                 d="m 5.2906251,-14.416953 0,-22.617423 11.9039069,0 0,3.703438 q 0,3.009043 -0.03307,7.572207 -0.03307,4.530098 -0.03307,6.051153 0,4.463964 0.231465,6.447949 0.231464,1.950918 0.793593,2.843711 0.727461,1.1573241 1.884786,1.7855858 1.19039,0.6282617 2.711445,0.6282617 3.703437,0 5.819688,-2.8437105 2.11625,-2.843711 2.11625,-7.902872 l 0,-18.285723 11.837773,0 0,37.034376 -11.837773,0 0,-5.3567579 Q 28.00724,-2.11625 24.998197,-0.56212892 22.02222,0.9589258 18.417982,0.9589258 q -6.414883,0 -9.7876568,-3.9349024 Q 5.2906251,-6.910879 5.2906251,-14.416953 Z"
                 id="path5001"
                 inkscape:connector-curvature="0" />
            </g>
            <g
               transform="translate(126.07813,65)"
               style="font-variant:normal;font-weight:bold;font-size:67.72000122px;font-family:LeagueSpartan;-inkscape-font-specification:LeagueSpartan-Bold;writing-mode:lr-tb;fill:#f6b21b;fill-opacity:1;fill-rule:nonzero;stroke:none"
               id="text4563">
              <path
                 d="m 18.616387,-47.549493 0,10.515117 12.201504,0 0,8.465 -12.201504,0 0,15.706544 q 0,2.579179 1.025059,3.5050389 1.025058,0.8927929 4.067168,0.8927929 l 6.084219,0 0,8.4650002 -10.151387,0 Q 12.631367,0 9.6884572,-2.9098438 6.7786134,-5.852754 6.7786134,-12.862832 l 0,-15.706544 -5.88582042,0 0,-8.465 5.88582042,0 0,-10.515117 11.8377736,0 z"
                 id="path5004"
                 inkscape:connector-curvature="0" />
            </g>
            <g
               transform="translate(152.8125,65)"
               style="font-variant:normal;font-weight:bold;font-size:67.72000122px;font-family:LeagueSpartan;-inkscape-font-specification:LeagueSpartan-Bold;writing-mode:lr-tb;fill:#f6b21b;fill-opacity:1;fill-rule:nonzero;stroke:none"
               id="text4567">
              <path
                 d="m 23.311817,-29.462168 q -3.934903,0 -6.018086,2.84371 -2.050117,2.810645 -2.050117,8.134337 0,5.323691 2.050117,8.167402 2.083183,2.8106446 6.018086,2.8106446 3.868769,0 5.918887,-2.8106446 2.050117,-2.843711 2.050117,-8.167402 0,-5.323692 -2.050117,-8.134337 -2.050118,-2.84371 -5.918887,-2.84371 z m 0,-8.465001 q 9.556191,0 14.912949,5.15836 5.389825,5.158359 5.389825,14.284688 0,9.1263279 -5.389825,14.2846873 -5.356758,5.1583595 -14.912949,5.1583595 -9.589258,0 -15.0121489,-5.1583595 -5.3898243,-5.1583594 -5.3898243,-14.2846873 0,-9.126329 5.3898243,-14.284688 5.4228909,-5.15836 15.0121489,-5.15836 z"
                 id="path5007"
                 inkscape:connector-curvature="0" />
            </g>
            <g
               transform="translate(197.5625,65)"
               style="font-variant:normal;font-weight:bold;font-size:67.72000122px;font-family:LeagueSpartan;-inkscape-font-specification:LeagueSpartan-Bold;writing-mode:lr-tb;fill:#222222;fill-opacity:1;fill-rule:nonzero;stroke:none"
               id="text4571">
              <path
                 d="m 0.33066407,-49.368145 45.49937593,0 0,9.622324 -16.367872,0 0,39.745821 -12.730566,0 0,-39.745821 -16.40093793,0 0,-9.622324 z"
                 id="path5010"
                 inkscape:connector-curvature="0" />
            </g>
            <g
               transform="translate(237.92188,65)"
               style="font-variant:normal;font-weight:bold;font-size:67.72000122px;font-family:LeagueSpartan;-inkscape-font-specification:LeagueSpartan-Bold;writing-mode:lr-tb;fill:#222222;fill-opacity:1;fill-rule:nonzero;stroke:none"
               id="text4575">
              <path
                 d="m 33.198672,-26.949122 q -1.554121,-0.727461 -3.108242,-1.058125 -1.521054,-0.36373 -3.075176,-0.36373 -4.563164,0 -7.043144,2.94291 -2.446914,2.909844 -2.446914,8.365801 l 0,17.062266 -11.837774,0 0,-37.034376 11.837774,0 0,6.084219 q 2.281582,-3.637305 5.224492,-5.290625 2.975977,-1.686387 7.109277,-1.686387 0.595196,0 1.28959,0.06613 0.694395,0.03307 2.017051,0.198399 l 0.03307,10.713515 z"
                 id="path5013"
                 inkscape:connector-curvature="0" />
            </g>
            <g
               transform="translate(271.64063,65)"
               style="font-variant:normal;font-weight:bold;font-size:67.72000122px;font-family:LeagueSpartan;-inkscape-font-specification:LeagueSpartan-Bold;writing-mode:lr-tb;fill:#222222;fill-opacity:1;fill-rule:nonzero;stroke:none"
               id="text4579">
              <path
                 d="m 22.286758,-16.665469 q -3.703437,0 -5.588223,1.256523 -1.851718,1.256524 -1.851718,3.703438 0,2.2485156 1.487988,3.5381055 1.521055,1.2565235 4.199434,1.2565235 3.339707,0 5.621289,-2.3807813 2.281582,-2.4138477 2.281582,-6.0180857 l 0,-1.355723 -6.150352,0 z m 18.087325,-4.463965 0,21.129434 -11.936973,0 0,-5.4890235 q -2.380781,3.3727735 -5.356758,4.92689458 -2.975977,1.52105472 -7.241543,1.52105472 -5.753555,0 -9.3577933,-3.3397071 -3.5711719,-3.3727735 -3.5711719,-8.7295317 0,-6.514082 4.4639649,-9.556191 4.4970313,-3.04211 14.0862893,-3.04211 l 6.977012,0 0,-0.925859 q 0,-2.810645 -2.215449,-4.100235 -2.21545,-1.322656 -6.910879,-1.322656 -3.802637,0 -7.076211,0.760528 -3.2735747,0.760527 -6.0842193,2.281582 l 0,-9.027129 q 3.8026368,-0.92586 7.6383403,-1.38879 3.835703,-0.495996 7.671406,-0.495996 10.019121,0 14.45002,3.967969 4.463965,3.934903 4.463965,12.829766 z"
                 id="path5016"
                 inkscape:connector-curvature="0" />
            </g>
            <g
               transform="translate(317.89063,65)"
               style="font-variant:normal;font-weight:bold;font-size:67.72000122px;font-family:LeagueSpartan;-inkscape-font-specification:LeagueSpartan-Bold;writing-mode:lr-tb;fill:#222222;fill-opacity:1;fill-rule:nonzero;stroke:none"
               id="text4583">
              <path
                 d="m 30.884024,-31.611485 0,-19.839844 11.903906,0 0,51.451329 -11.903906,0 0,-5.3567579 Q 28.43711,-2.0831836 25.4942,-0.56212892 22.551289,0.9589258 18.68252,0.9589258 q -6.844746,0 -11.2425785,-5.4228907 -4.3978321,-5.4559572 -4.3978321,-14.0201561 0,-8.5642 4.3978321,-13.987091 4.3978325,-5.455957 11.2425785,-5.455957 3.835703,0 6.778613,1.554121 2.975977,1.521055 5.422891,4.761563 z M 23.080352,-7.63834 q 3.802637,0 5.786621,-2.777578 2.017051,-2.777578 2.017051,-8.068203 0,-5.290626 -2.017051,-8.068204 -1.983984,-2.777578 -5.786621,-2.777578 -3.76957,0 -5.786621,2.777578 -1.983985,2.777578 -1.983985,8.068204 0,5.290625 1.983985,8.068203 2.017051,2.777578 5.786621,2.777578 z"
                 id="path5019"
                 inkscape:connector-curvature="0" />
            </g>
            <g
               transform="translate(364.14063,65)"
               style="font-variant:normal;font-weight:bold;font-size:67.72000122px;font-family:LeagueSpartan;-inkscape-font-specification:LeagueSpartan-Bold;writing-mode:lr-tb;fill:#222222;fill-opacity:1;fill-rule:nonzero;stroke:none"
               id="text4587">
              <path
                 d="m 5.687422,-37.034376 11.837774,0 0,37.034376 -11.837774,0 0,-37.034376 z m 0,-14.416953 11.837774,0 0,9.655391 -11.837774,0 0,-9.655391 z"
                 id="path5022"
                 inkscape:connector-curvature="0" />
            </g>
            <g
               transform="translate(384.57813,65)"
               style="font-variant:normal;font-weight:bold;font-size:67.72000122px;font-family:LeagueSpartan;-inkscape-font-specification:LeagueSpartan-Bold;writing-mode:lr-tb;fill:#222222;fill-opacity:1;fill-rule:nonzero;stroke:none"
               id="text4591">
              <path
                 d="m 42.920196,-22.551289 0,22.551289 -11.903906,0 0,-3.6703712 0,-13.5902928 q 0,-4.794629 -0.231465,-6.613282 -0.198399,-1.818652 -0.727461,-2.678379 -0.694395,-1.157324 -1.884785,-1.785586 -1.190391,-0.661328 -2.711446,-0.661328 -3.703437,0 -5.819687,2.876778 -2.11625,2.843711 -2.11625,7.902871 l 0,18.21959 -11.837774,0 0,-37.034376 11.837774,0 0,5.422891 q 2.678379,-3.240508 5.687422,-4.761563 3.009043,-1.554121 6.646347,-1.554121 6.414883,0 9.721524,3.934903 3.339707,3.934902 3.339707,11.440977 z"
                 id="path5025"
                 inkscape:connector-curvature="0" />
            </g>
            <g
               transform="translate(429.32813,65)"
               style="font-variant:normal;font-weight:bold;font-size:67.72000122px;font-family:LeagueSpartan;-inkscape-font-specification:LeagueSpartan-Bold;writing-mode:lr-tb;fill:#222222;fill-opacity:1;fill-rule:nonzero;stroke:none"
               id="text4595">
              <path
                 d="M 30.884024,-6.2826173 Q 28.43711,-3.0421094 25.4942,-1.5210547 22.551289,0 18.68252,0 11.903906,0 7.4730079,-5.3236915 3.0421094,-10.680449 3.0421094,-18.947051 q 0,-8.299668 4.4308985,-13.590293 4.4308981,-5.323692 11.2095121,-5.323692 3.868769,0 6.81168,1.521055 2.94291,1.521055 5.389824,4.794629 l 0,-5.489024 11.903906,0 0,33.297872 q 0,8.9279299 -5.654355,13.6233596 -5.621289,4.7284964 -16.334805,4.7284964 -3.471973,0 -6.712481,-0.529063 -3.240508,-0.529062 -6.5140818,-1.620254 l 0,-9.2255271 q 3.1082418,1.7855859 6.0842188,2.6453125 2.975977,0.892793 5.98502,0.892793 5.819687,0 8.531133,-2.5461133 2.711445,-2.5461134 2.711445,-7.9690041 l 0,-2.5461133 z M 23.080352,-29.329903 q -3.670371,0 -5.720488,2.711445 -2.050118,2.711446 -2.050118,7.671407 0,5.092227 1.983985,7.737539 1.983984,2.6122462 5.786621,2.6122462 3.703438,0 5.753555,-2.7114452 2.050117,-2.711446 2.050117,-7.63834 0,-4.959961 -2.050117,-7.671407 -2.050117,-2.711445 -5.753555,-2.711445 z"
                 id="path5028"
                 inkscape:connector-curvature="0" />
            </g>
          </g>
        </g>
      </g>
      <g
         id="g4599">
        <g
           id="g4601"
           clip-path="url(#clipPath4603)">
          <g
             id="g4607"
             transform="matrix(-0.11122745,0,0,-0.11340207,351.73941,144)">
            <path
               d="M 390.89999,145.5 145.5,145.5 C 65.099998,145.5 0,80.400002 0,0 l 390.89999,0 0,145.5 z"
               style="fill:#f6b21b;fill-opacity:1;fill-rule:nonzero;stroke:none"
               id="path4609"
               inkscape:connector-curvature="0" />
          </g>
        </g>
      </g>
      <g
         id="g4611">
        <g
           id="g4613"
           clip-path="url(#clipPath4615)">
          <g
             id="g4619"
             transform="matrix(0.75,0,0,0.75,173.25,182.25)">
            <g
               transform="translate(132.90625,21)"
               style="font-variant:normal;font-weight:normal;font-size:19.70000076px;font-family:PTSans;-inkscape-font-specification:PTSans-Regular;writing-mode:lr-tb;fill:#222222;fill-opacity:1;fill-rule:nonzero;stroke:none"
               id="text4621">
              <path
                 d="m 3.8765138,-6.8584475 0,5.2616701 3.1166017,0 q 1.56792,0 2.318213,-0.6444825 0.7599125,-0.6541015 0.7599125,-1.9911621 0,-1.3466798 -0.7599125,-1.9815431 -0.750293,-0.6444824 -2.318213,-0.6444824 l -3.1166017,0 z m 0,-5.9061525 0,4.3286133 2.8761232,0 q 1.4236328,0 2.116211,-0.5290527 0.7021973,-0.5386719 0.7021973,-1.6352536 0,-1.086963 -0.7021973,-1.625635 Q 8.1762698,-12.7646 6.752637,-12.7646 l -2.8761232,0 z m -1.9430665,-1.596778 4.9634768,0 q 2.2220216,0 3.4244139,0.923438 1.202393,0.923438 1.202393,2.626026 0,1.3178218 -0.615625,2.0969723 -0.615625,0.7791504 -1.8083986,0.9715332 1.4332516,0.3078125 2.2220216,1.2889649 0.798389,0.9715332 0.798389,2.4336427 0,1.9238282 -1.308204,2.9723145 Q 9.5037113,0 7.0893069,0 l -5.1558596,0 0,-14.361378 z"
                 id="path5031"
                 inkscape:connector-curvature="0" />
            </g>
            <g
               transform="translate(150.5,21)"
               style="font-variant:normal;font-weight:normal;font-size:19.70000076px;font-family:PTSans;-inkscape-font-specification:PTSans-Regular;writing-mode:lr-tb;fill:#222222;fill-opacity:1;fill-rule:nonzero;stroke:none"
               id="text4625">
              <path
                 d="m 7.7626468,-13.043555 q -2.116211,0 -3.3666994,1.577539 -1.2408692,1.5775391 -1.2408692,4.299756 0,2.7125977 1.2408692,4.2901368 1.2504884,1.5775392 3.3666994,1.5775392 2.116211,0 3.3474612,-1.5775392 1.240869,-1.5775391 1.240869,-4.2901368 0,-2.7222169 -1.240869,-4.299756 -1.2312502,-1.577539 -3.3474612,-1.577539 z m 0,-1.577539 q 3.0204102,0 4.8288092,2.029638 1.808398,2.02002 1.808398,5.425196 0,3.3955567 -1.808398,5.4251955 -1.808399,2.02001959 -4.8288092,2.02001959 -3.0300294,0 -4.8480471,-2.02001959 -1.8083985,-2.0200196 -1.8083985,-5.4251955 0,-3.405176 1.8083985,-5.425196 1.8180177,-2.029638 4.8480471,-2.029638 z"
                 id="path5034"
                 inkscape:connector-curvature="0" />
            </g>
            <g
               transform="translate(170.0625,21)"
               style="font-variant:normal;font-weight:normal;font-size:19.70000076px;font-family:PTSans;-inkscape-font-specification:PTSans-Regular;writing-mode:lr-tb;fill:#222222;fill-opacity:1;fill-rule:nonzero;stroke:none"
               id="text4629">
              <path
                 d="m -0.05771485,-14.361378 12.14897485,0 0,1.635254 -5.0981445,0 0,12.726124 -1.9526856,0 0,-12.726124 -5.09814475,0 0,-1.635254 z"
                 id="path5037"
                 inkscape:connector-curvature="0" />
            </g>
          </g>
        </g>
      </g>
    </g>
    <g
       id="g4519-6"
       inkscape:label="AutoTrading (1)"
       transform="matrix(0.39108868,0,0,0.39108868,156.18468,435.44729)">
      <g
         id="g4533-2" />
      <g
         id="g4545-9">
        <g
           id="g4547-1"
           clip-path="url(#clipPath4549-3)">
          <g
             id="g4553-2"
             transform="matrix(0.75,0,0,0.75,0,127.5)">
            <g
               transform="translate(28.578125,65)"
               style="font-variant:normal;font-weight:bold;font-size:67.72000122px;font-family:LeagueSpartan;-inkscape-font-specification:LeagueSpartan-Bold;writing-mode:lr-tb;fill:#f6b21b;fill-opacity:1;fill-rule:nonzero;stroke:none"
               id="text4555-7">
              <path
                 d="m 36.174649,-8.9940627 -19.905977,0 L 13.127364,0 0.33066407,0 18.616387,-49.368145 l 15.177481,0 L 52.079591,0 39.282891,0 36.174649,-8.9940627 Z m -16.731602,-9.1593943 13.524161,0 -6.745547,-19.641446 -6.778614,19.641446 z"
                 id="path4956"
                 inkscape:connector-curvature="0" />
            </g>
            <g
               transform="translate(81.65625,65)"
               style="font-variant:normal;font-weight:bold;font-size:67.72000122px;font-family:LeagueSpartan;-inkscape-font-specification:LeagueSpartan-Bold;writing-mode:lr-tb;fill:#f6b21b;fill-opacity:1;fill-rule:nonzero;stroke:none"
               id="text4559-9">
              <path
                 d="m 5.2906251,-14.416953 0,-22.617423 11.9039069,0 0,3.703438 q 0,3.009043 -0.03307,7.572207 -0.03307,4.530098 -0.03307,6.051153 0,4.463964 0.231465,6.447949 0.231464,1.950918 0.793593,2.843711 0.727461,1.1573241 1.884786,1.7855858 1.19039,0.6282617 2.711445,0.6282617 3.703437,0 5.819688,-2.8437105 2.11625,-2.843711 2.11625,-7.902872 l 0,-18.285723 11.837773,0 0,37.034376 -11.837773,0 0,-5.3567579 Q 28.00724,-2.11625 24.998197,-0.56212892 22.02222,0.9589258 18.417982,0.9589258 q -6.414883,0 -9.7876568,-3.9349024 Q 5.2906251,-6.910879 5.2906251,-14.416953 Z"
                 id="path4959"
                 inkscape:connector-curvature="0" />
            </g>
            <g
               transform="translate(126.07813,65)"
               style="font-variant:normal;font-weight:bold;font-size:67.72000122px;font-family:LeagueSpartan;-inkscape-font-specification:LeagueSpartan-Bold;writing-mode:lr-tb;fill:#f6b21b;fill-opacity:1;fill-rule:nonzero;stroke:none"
               id="text4563-6">
              <path
                 d="m 18.616387,-47.549493 0,10.515117 12.201504,0 0,8.465 -12.201504,0 0,15.706544 q 0,2.579179 1.025059,3.5050389 1.025058,0.8927929 4.067168,0.8927929 l 6.084219,0 0,8.4650002 -10.151387,0 Q 12.631367,0 9.6884572,-2.9098438 6.7786134,-5.852754 6.7786134,-12.862832 l 0,-15.706544 -5.88582042,0 0,-8.465 5.88582042,0 0,-10.515117 11.8377736,0 z"
                 id="path4962"
                 inkscape:connector-curvature="0" />
            </g>
            <g
               transform="translate(152.8125,65)"
               style="font-variant:normal;font-weight:bold;font-size:67.72000122px;font-family:LeagueSpartan;-inkscape-font-specification:LeagueSpartan-Bold;writing-mode:lr-tb;fill:#f6b21b;fill-opacity:1;fill-rule:nonzero;stroke:none"
               id="text4567-6">
              <path
                 d="m 23.311817,-29.462168 q -3.934903,0 -6.018086,2.84371 -2.050117,2.810645 -2.050117,8.134337 0,5.323691 2.050117,8.167402 2.083183,2.8106446 6.018086,2.8106446 3.868769,0 5.918887,-2.8106446 2.050117,-2.843711 2.050117,-8.167402 0,-5.323692 -2.050117,-8.134337 -2.050118,-2.84371 -5.918887,-2.84371 z m 0,-8.465001 q 9.556191,0 14.912949,5.15836 5.389825,5.158359 5.389825,14.284688 0,9.1263279 -5.389825,14.2846873 -5.356758,5.1583595 -14.912949,5.1583595 -9.589258,0 -15.0121489,-5.1583595 -5.3898243,-5.1583594 -5.3898243,-14.2846873 0,-9.126329 5.3898243,-14.284688 5.4228909,-5.15836 15.0121489,-5.15836 z"
                 id="path4965"
                 inkscape:connector-curvature="0" />
            </g>
          </g>
        </g>
      </g>
      <g
         id="g4599-8">
        <g
           id="g4601-9"
           clip-path="url(#clipPath4603-7)">
          <g
             id="g4607-7"
             transform="matrix(-0.11122745,0,0,-0.11340207,351.73941,144)">
            <path
               d="M 390.89999,145.5 145.5,145.5 C 65.099998,145.5 0,80.400002 0,0 l 390.89999,0 0,145.5 z"
               style="fill:#f6b21b;fill-opacity:1;fill-rule:nonzero;stroke:none"
               id="path4609-3"
               inkscape:connector-curvature="0" />
          </g>
        </g>
      </g>
      <g
         id="g4930">
        <g
           transform="matrix(0.75,0,0,0.75,148.17187,176.25)"
           style="font-variant:normal;font-weight:bold;font-size:67.72000122px;font-family:LeagueSpartan;-inkscape-font-specification:LeagueSpartan-Bold;writing-mode:lr-tb;fill:#ffffff;fill-opacity:1;fill-rule:nonzero;stroke:none"
           id="text4571-6">
          <path
             d="m 0.33066407,-49.368145 45.49937593,0 0,9.622324 -16.367872,0 0,39.745821 -12.730566,0 0,-39.745821 -16.40093793,0 0,-9.622324 z"
             style="fill:#ffffff"
             id="path4968"
             inkscape:connector-curvature="0" />
        </g>
        <g
           transform="matrix(0.75,0,0,0.75,178.44141,176.25)"
           style="font-variant:normal;font-weight:bold;font-size:67.72000122px;font-family:LeagueSpartan;-inkscape-font-specification:LeagueSpartan-Bold;writing-mode:lr-tb;fill:#ffffff;fill-opacity:1;fill-rule:nonzero;stroke:none"
           id="text4575-8">
          <path
             d="m 33.198672,-26.949122 q -1.554121,-0.727461 -3.108242,-1.058125 -1.521054,-0.36373 -3.075176,-0.36373 -4.563164,0 -7.043144,2.94291 -2.446914,2.909844 -2.446914,8.365801 l 0,17.062266 -11.837774,0 0,-37.034376 11.837774,0 0,6.084219 q 2.281582,-3.637305 5.224492,-5.290625 2.975977,-1.686387 7.109277,-1.686387 0.595196,0 1.28959,0.06613 0.694395,0.03307 2.017051,0.198399 l 0.03307,10.713515 z"
             style="fill:#ffffff"
             id="path4971"
             inkscape:connector-curvature="0" />
        </g>
        <g
           transform="matrix(0.75,0,0,0.75,203.73047,176.25)"
           style="font-variant:normal;font-weight:bold;font-size:67.72000122px;font-family:LeagueSpartan;-inkscape-font-specification:LeagueSpartan-Bold;writing-mode:lr-tb;fill:#ffffff;fill-opacity:1;fill-rule:nonzero;stroke:none"
           id="text4579-9">
          <path
             d="m 22.286758,-16.665469 q -3.703437,0 -5.588223,1.256523 -1.851718,1.256524 -1.851718,3.703438 0,2.2485156 1.487988,3.5381055 1.521055,1.2565235 4.199434,1.2565235 3.339707,0 5.621289,-2.3807813 2.281582,-2.4138477 2.281582,-6.0180857 l 0,-1.355723 -6.150352,0 z m 18.087325,-4.463965 0,21.129434 -11.936973,0 0,-5.4890235 q -2.380781,3.3727735 -5.356758,4.92689458 -2.975977,1.52105472 -7.241543,1.52105472 -5.753555,0 -9.3577933,-3.3397071 -3.5711719,-3.3727735 -3.5711719,-8.7295317 0,-6.514082 4.4639649,-9.556191 4.4970313,-3.04211 14.0862893,-3.04211 l 6.977012,0 0,-0.925859 q 0,-2.810645 -2.215449,-4.100235 -2.21545,-1.322656 -6.910879,-1.322656 -3.802637,0 -7.076211,0.760528 -3.2735747,0.760527 -6.0842193,2.281582 l 0,-9.027129 q 3.8026368,-0.92586 7.6383403,-1.38879 3.835703,-0.495996 7.671406,-0.495996 10.019121,0 14.45002,3.967969 4.463965,3.934903 4.463965,12.829766 z"
             style="fill:#ffffff"
             id="path4974"
             inkscape:connector-curvature="0" />
        </g>
        <g
           transform="matrix(0.75,0,0,0.75,238.41797,176.25)"
           style="font-variant:normal;font-weight:bold;font-size:67.72000122px;font-family:LeagueSpartan;-inkscape-font-specification:LeagueSpartan-Bold;writing-mode:lr-tb;fill:#ffffff;fill-opacity:1;fill-rule:nonzero;stroke:none"
           id="text4583-0">
          <path
             d="m 30.884024,-31.611485 0,-19.839844 11.903906,0 0,51.451329 -11.903906,0 0,-5.3567579 Q 28.43711,-2.0831836 25.4942,-0.56212892 22.551289,0.9589258 18.68252,0.9589258 q -6.844746,0 -11.2425785,-5.4228907 -4.3978321,-5.4559572 -4.3978321,-14.0201561 0,-8.5642 4.3978321,-13.987091 4.3978325,-5.455957 11.2425785,-5.455957 3.835703,0 6.778613,1.554121 2.975977,1.521055 5.422891,4.761563 z M 23.080352,-7.63834 q 3.802637,0 5.786621,-2.777578 2.017051,-2.777578 2.017051,-8.068203 0,-5.290626 -2.017051,-8.068204 -1.983984,-2.777578 -5.786621,-2.777578 -3.76957,0 -5.786621,2.777578 -1.983985,2.777578 -1.983985,8.068204 0,5.290625 1.983985,8.068203 2.017051,2.777578 5.786621,2.777578 z"
             style="fill:#ffffff"
             id="path4977"
             inkscape:connector-curvature="0" />
        </g>
        <g
           transform="matrix(0.75,0,0,0.75,273.10548,176.25)"
           style="font-variant:normal;font-weight:bold;font-size:67.72000122px;font-family:LeagueSpartan;-inkscape-font-specification:LeagueSpartan-Bold;writing-mode:lr-tb;fill:#ffffff;fill-opacity:1;fill-rule:nonzero;stroke:none"
           id="text4587-3">
          <path
             d="m 5.687422,-37.034376 11.837774,0 0,37.034376 -11.837774,0 0,-37.034376 z m 0,-14.416953 11.837774,0 0,9.655391 -11.837774,0 0,-9.655391 z"
             style="fill:#ffffff"
             id="path4980"
             inkscape:connector-curvature="0" />
        </g>
        <g
           transform="matrix(0.75,0,0,0.75,288.4336,176.25)"
           style="font-variant:normal;font-weight:bold;font-size:67.72000122px;font-family:LeagueSpartan;-inkscape-font-specification:LeagueSpartan-Bold;writing-mode:lr-tb;fill:#ffffff;fill-opacity:1;fill-rule:nonzero;stroke:none"
           id="text4591-5">
          <path
             d="m 42.920196,-22.551289 0,22.551289 -11.903906,0 0,-3.6703712 0,-13.5902928 q 0,-4.794629 -0.231465,-6.613282 -0.198399,-1.818652 -0.727461,-2.678379 -0.694395,-1.157324 -1.884785,-1.785586 -1.190391,-0.661328 -2.711446,-0.661328 -3.703437,0 -5.819687,2.876778 -2.11625,2.843711 -2.11625,7.902871 l 0,18.21959 -11.837774,0 0,-37.034376 11.837774,0 0,5.422891 q 2.678379,-3.240508 5.687422,-4.761563 3.009043,-1.554121 6.646347,-1.554121 6.414883,0 9.721524,3.934903 3.339707,3.934902 3.339707,11.440977 z"
             style="fill:#ffffff"
             id="path4983"
             inkscape:connector-curvature="0" />
        </g>
        <g
           transform="matrix(0.75,0,0,0.75,321.99609,176.25)"
           style="font-variant:normal;font-weight:bold;font-size:67.72000122px;font-family:LeagueSpartan;-inkscape-font-specification:LeagueSpartan-Bold;writing-mode:lr-tb;fill:#ffffff;fill-opacity:1;fill-rule:nonzero;stroke:none"
           id="text4595-2">
          <path
             d="M 30.884024,-6.2826173 Q 28.43711,-3.0421094 25.4942,-1.5210547 22.551289,0 18.68252,0 11.903906,0 7.4730079,-5.3236915 3.0421094,-10.680449 3.0421094,-18.947051 q 0,-8.299668 4.4308985,-13.590293 4.4308981,-5.323692 11.2095121,-5.323692 3.868769,0 6.81168,1.521055 2.94291,1.521055 5.389824,4.794629 l 0,-5.489024 11.903906,0 0,33.297872 q 0,8.9279299 -5.654355,13.6233596 -5.621289,4.7284964 -16.334805,4.7284964 -3.471973,0 -6.712481,-0.529063 -3.240508,-0.529062 -6.5140818,-1.620254 l 0,-9.2255271 q 3.1082418,1.7855859 6.0842188,2.6453125 2.975977,0.892793 5.98502,0.892793 5.819687,0 8.531133,-2.5461133 2.711445,-2.5461134 2.711445,-7.9690041 l 0,-2.5461133 z M 23.080352,-29.329903 q -3.670371,0 -5.720488,2.711445 -2.050118,2.711446 -2.050118,7.671407 0,5.092227 1.983985,7.737539 1.983984,2.6122462 5.786621,2.6122462 3.703438,0 5.753555,-2.7114452 2.050117,-2.711446 2.050117,-7.63834 0,-4.959961 -2.050117,-7.671407 -2.050117,-2.711445 -5.753555,-2.711445 z"
             style="fill:#ffffff"
             id="path4986"
             inkscape:connector-curvature="0" />
        </g>
        <g
           style="fill:#ffffff"
           id="g4611-6">
          <g
             style="fill:#ffffff"
             clip-path="url(#clipPath4615-3)"
             id="g4613-1">
            <g
               style="fill:#ffffff"
               transform="matrix(0.75,0,0,0.75,173.25,182.25)"
               id="g4619-2">
              <g
                 transform="translate(132.90625,21)"
                 style="font-variant:normal;font-weight:normal;font-size:19.70000076px;font-family:PTSans;-inkscape-font-specification:PTSans-Regular;writing-mode:lr-tb;fill:#ffffff;fill-opacity:1;fill-rule:nonzero;stroke:none"
                 id="text4621-9">
                <path
                   d="m 3.8765138,-6.8584475 0,5.2616701 3.1166017,0 q 1.56792,0 2.318213,-0.6444825 0.7599125,-0.6541015 0.7599125,-1.9911621 0,-1.3466798 -0.7599125,-1.9815431 -0.750293,-0.6444824 -2.318213,-0.6444824 l -3.1166017,0 z m 0,-5.9061525 0,4.3286133 2.8761232,0 q 1.4236328,0 2.116211,-0.5290527 0.7021973,-0.5386719 0.7021973,-1.6352536 0,-1.086963 -0.7021973,-1.625635 Q 8.1762698,-12.7646 6.752637,-12.7646 l -2.8761232,0 z m -1.9430665,-1.596778 4.9634768,0 q 2.2220216,0 3.4244139,0.923438 1.202393,0.923438 1.202393,2.626026 0,1.3178218 -0.615625,2.0969723 -0.615625,0.7791504 -1.8083986,0.9715332 1.4332516,0.3078125 2.2220216,1.2889649 0.798389,0.9715332 0.798389,2.4336427 0,1.9238282 -1.308204,2.9723145 Q 9.5037113,0 7.0893069,0 l -5.1558596,0 0,-14.361378 z"
                   style="fill:#ffffff"
                   id="path4989"
                   inkscape:connector-curvature="0" />
              </g>
              <g
                 transform="translate(150.5,21)"
                 style="font-variant:normal;font-weight:normal;font-size:19.70000076px;font-family:PTSans;-inkscape-font-specification:PTSans-Regular;writing-mode:lr-tb;fill:#ffffff;fill-opacity:1;fill-rule:nonzero;stroke:none"
                 id="text4625-1">
                <path
                   d="m 7.7626468,-13.043555 q -2.116211,0 -3.3666994,1.577539 -1.2408692,1.5775391 -1.2408692,4.299756 0,2.7125977 1.2408692,4.2901368 1.2504884,1.5775392 3.3666994,1.5775392 2.116211,0 3.3474612,-1.5775392 1.240869,-1.5775391 1.240869,-4.2901368 0,-2.7222169 -1.240869,-4.299756 -1.2312502,-1.577539 -3.3474612,-1.577539 z m 0,-1.577539 q 3.0204102,0 4.8288092,2.029638 1.808398,2.02002 1.808398,5.425196 0,3.3955567 -1.808398,5.4251955 -1.808399,2.02001959 -4.8288092,2.02001959 -3.0300294,0 -4.8480471,-2.02001959 -1.8083985,-2.0200196 -1.8083985,-5.4251955 0,-3.405176 1.8083985,-5.425196 1.8180177,-2.029638 4.8480471,-2.029638 z"
                   style="fill:#ffffff"
                   id="path4992"
                   inkscape:connector-curvature="0" />
              </g>
              <g
                 transform="translate(170.0625,21)"
                 style="font-variant:normal;font-weight:normal;font-size:19.70000076px;font-family:PTSans;-inkscape-font-specification:PTSans-Regular;writing-mode:lr-tb;fill:#ffffff;fill-opacity:1;fill-rule:nonzero;stroke:none"
                 id="text4629-4">
                <path
                   d="m -0.05771485,-14.361378 12.14897485,0 0,1.635254 -5.0981445,0 0,12.726124 -1.9526856,0 0,-12.726124 -5.09814475,0 0,-1.635254 z"
                   style="fill:#ffffff"
                   id="path4995"
                   inkscape:connector-curvature="0" />
              </g>
            </g>
          </g>
        </g>
      </g>
    </g>
  </g>
</svg>
